Prueba 4 – Obesity Risk – Exploratory Analysis
…
Filtrar

Filtrar por género Male

obesity |>
  filter(Gender == "Male")

# A tibble: 10,336 × 20
      id Gender   Age Height Weight family_history_with_overweight
   <dbl> <chr>  <dbl>  <dbl>  <dbl> <fct>                         
 1     0 Male    24.4   1.70   81.7 Si                            
 2     4 Male    31.6   1.91   93.8 Si                            
 3     5 Male    18.1   1.75   51.6 Si                            
 4     6 Male    29.9   1.75  113.  Si                            
 5     7 Male    29.9   1.75  118.  Si                            
 6     8 Male    17     1.7    70   No                            
 7    11 Male    22     1.7    70   Si                            
 8    12 Male    18     1.81  108.  Si                            
 9    15 Male    28.4   1.71  103.  Si                            
10    18 Male    22     1.7    80   Si                            
# ℹ 10,326 more rows
# ℹ 14 more variables: frequent_high_calorie_food <fct>,
#   vegetable_consumption_frequency <dbl>, number_main_meals <dbl>,
#   food_between_meals <fct>, SMOKE <fct>, daily_water_consumption <dbl>,
#   caloric_beverages_consumption <fct>, physical_activity_frequency <dbl>,
#   technology_use_time <dbl>, alcohol_consumption <fct>,
#   transportation_mode <fct>, `0be1dad` <chr>, imc <dbl>, …

Filtrar por género Female

obesity |>
  filter(Gender == "Female")

# A tibble: 10,422 × 20
      id Gender   Age Height Weight family_history_with_overweight
   <dbl> <chr>  <dbl>  <dbl>  <dbl> <fct>                         
 1     1 Female  18     1.56   57   Si                            
 2     2 Female  18     1.71   50.2 Si                            
 3     3 Female  21.0   1.71  131.  Si                            
 4     9 Female  26     1.64  111.  Si                            
 5    10 Female  20     1.65   65   Si                            
 6    13 Female  21.4   1.73  132.  Si                            
 7    14 Female  20     1.57   49   No                            
 8    16 Female  34     1.7    80   Si                            
 9    17 Female  18     1.56   50   No                            
10    20 Female  22     1.67   80   Si                            
# ℹ 10,412 more rows
# ℹ 14 more variables: frequent_high_calorie_food <fct>,
#   vegetable_consumption_frequency <dbl>, number_main_meals <dbl>,
#   food_between_meals <fct>, SMOKE <fct>, daily_water_consumption <dbl>,
#   caloric_beverages_consumption <fct>, physical_activity_frequency <dbl>,
#   technology_use_time <dbl>, alcohol_consumption <fct>,
#   transportation_mode <fct>, `0be1dad` <chr>, imc <dbl>, …
…
Male
Obesidad grado 3
107

Seleccionar

Seleccionar por género, edad, imc y tipo de obesidad

obesity |>
  select(Gender, Age, imc, tipo_obesidad) 

# A tibble: 20,758 × 4
   Gender   Age   imc tipo_obesidad   
   <chr>  <dbl> <dbl> <fct>           
 1 Male    24.4  28.3 Sobrepeso       
 2 Female  18    23.4 Peso normal     
 3 Female  18    17.1 Desnutrición    
 4 Female  21.0  44.9 Obesidad grado 3
 5 Male    31.6  25.6 Sobrepeso       
 6 Male    18.1  16.9 Desnutrición    
 7 Male    29.9  36.6 Obesidad grado 2
 8 Male    29.9  38.6 Obesidad grado 2
 9 Male    17    24.2 Peso normal     
10 Female  26    41.4 Obesidad grado 3
# ℹ 20,748 more rows
…
